verilog/uart_helloworld/test.vcd
$date
	Sat Apr 10 07:04:25 2021
$end
$version
	Icarus Verilog
$end
$timescale
	1ps
$end
$scope module test $end
$var reg 1 ! clk $end
$var reg 1 " pause $end
$scope module dut $end
$var wire 1 ! clk $end
$var wire 1 " pause $end
$var wire 1 # tx_debug $end
$var wire 104 $ tx_str_bit [103:0] $end
$var wire 1 % tx_busy $end
$var wire 1 & tx $end
$var wire 1 ' send $end
$var reg 7 ( bitpos [6:0] $end
$var reg 4 ) bytepos [3:0] $end
$var reg 1 * state $end
$var reg 8 + tx_data [7:0] $end
$var reg 1 , wr_en $end
$scope module U_send_signal $end
$var wire 1 ! clk $end
$var wire 1 " pause $end
$var wire 1 ' send $end
$var reg 27 - cnt [26:0] $end
$upscope $end
$scope module U_uart $end
$var wire 1 ! clk $end
$var wire 8 . data_in [7:0] $end
$var wire 1 , wr_en $end
$var wire 1 / tx_clk $end
$var wire 1 % tx_busy $end
$var wire 1 & tx $end
$scope module U_baud_clk $end
$var wire 1 ! clk $end
$var wire 1 / tx_clk $end
$var reg 14 0 tx_acc [13:0] $end
$upscope $end
$scope module U_tx $end
$var wire 1 ! clk $end
$var wire 8 1 data_in [7:0] $end
$var wire 1 % tx_busy $end
$var wire 1 / tx_clk $end
$var wire 1 , wr_en $end
$var reg 3 2 bitpos [2:0] $end
$var reg 8 3 data [7:0] $end
$var reg 2 4 state [1:0] $end
$var reg 1 & tx $end
$upscope $end
$upscope $end
$upscope $end
$upscope $end
$scope module timeunit $end
$upscope $end
$enddefinitions $end
#0
$dumpvars
b0 4
b0 3
b0 2
b0 1
b0 0
0/
b0 .
b0 -
0,
b0 +
0*
bx )
bx (
0'
1&
0%
b1001000011001010110110001101100011011110010000001010111011011110111001001101100011001000010000100001010 $
1#
0"
0!
$end
#1000
1*
1,
b1001000 +
b1001000 .
b1001000 1
b1100111 (
b1100 )
1/
1'
b1 0
b1 -
1!
#2000
0!
#3000
0'
1%
0/
b10 -
b1001000 3
b1 4
b10 0
1!
#4000
0!
#5000
1/
b11 0
b11 -
1!
#6000
0!
#7000
0/
b100 -
b11 4
0#
0&
b100 0
1!
#8000
0!
#9000
1/
b101 0
b101 -
1!
#10000
0!
#11000
0/
b110 -
b1 2
b110 0
1!
#12000
0!
#13000
1/
b111 0
b111 -
1!
#14000
0!
#15000
0/
b1000 -
b10 2
b1000 0
1!
#16000
0!
#17000
1/
b1001 0
b1001 -
1!
#18000
0!
#19000
0/
b1010 -
b11 2
b1010 0
1!
#20000
0!
#21000
1/
b1011 0
b1011 -
1!
#22000
0!
#23000
0/
b1100 -
1#
1&
b100 2
b1100 0
1!
#24000
0!
#25000
1/
b1101 0
b1101 -
1!
#26000
0!
#27000
0/
b1110 -
0#
0&
b101 2
b1110 0
1!
#28000
0!
#29000
1/
b1111 0
b1111 -
1!
#30000
0!
#31000
0/
b10000 -
b110 2
b10000 0
1!
#32000
0!
#33000
1/
b10001 0
b10001 -
1!
#34000
0!
#35000
0/
b10010 -
1#
1&
b111 2
b10010 0
1!
#36000
0!
#37000
1/
b10011 0
b10011 -
1!
#38000
0!
#39000
b1011 )
b1100101 +
b1100101 .
b1100101 1
b1011111 (
0%
0/
b10100 -
0#
0&
b10 4
b10100 0
1!
#40000
0!
#41000
1/
b10101 0
b10101 -
1!
#42000
0!
#43000
0/
b10110 -
b0 4
1#
1&
b10110 0
1!
#44000
0!
#45000
1/
1%
b10111 0
b0 2
b1100101 3
b1 4
b10111 -
1!
#46000
0!
#47000
0/
b11000 -
b11 4
0#
0&
b11000 0
1!
#48000
0!
#49000
1/
b11001 0
b11001 -
1!
#50000
0!
#51000
0/
b11010 -
1#
1&
b1 2
b11010 0
1!
#52000
0!
#53000
1/
b11011 0
b11011 -
1!
#54000
0!
#55000
0/
b11100 -
0#
0&
b10 2
b11100 0
1!
#56000
0!
#57000
1/
b11101 0
b11101 -
1!
#58000
0!
#59000
0/
b11110 -
1#
1&
b11 2
b11110 0
1!
#60000
0!
#61000
1/
b11111 0
b11111 -
1!
#62000
0!
#63000
0/
b100000 -
0#
0&
b100 2
b100000 0
1!
#64000
0!
#65000
1/
b100001 0
b100001 -
1!
#66000
0!
#67000
0/
b100010 -
b101 2
b100010 0
1!
#68000
0!
#69000
1/
b100011 0
b100011 -
1!
#70000
0!
#71000
0/
b100100 -
1#
1&
b110 2
b100100 0
1!
#72000
0!
#73000
1/
b100101 0
b100101 -
1!
#74000
0!
#75000
0/
b100110 -
b111 2
b100110 0
1!
#76000
0!
#77000
1/
b100111 0
b100111 -
1!
#78000
0!
#79000
b1010 )
b1101100 +
b1101100 .
b1101100 1
b1010111 (
0%
0/
b101000 -
0#
0&
b10 4
b101000 0
1!
#80000
0!
#81000
1/
b101001 0
b101001 -
1!
#82000
0!
#83000
0/
b101010 -
b0 4
1#
1&
b101010 0
1!
#84000
0!
#85000
1/
1%
b101011 0
b0 2
b1101100 3
b1 4
b101011 -
1!
#86000
0!
#87000
0/
b101100 -
b11 4
0#
0&
b101100 0
1!
#88000
0!
#89000
1/
b101101 0
b101101 -
1!
#90000
0!
#91000
0/
b101110 -
b1 2
b101110 0
1!
#92000
0!
#93000
1/
b101111 0
b101111 -
1!
#94000
0!
#95000
0/
b110000 -
b10 2
b110000 0
1!
#96000
0!
#97000
1/
b110001 0
b110001 -
1!
#98000
0!
#99000
0/
b110010 -
1#
1&
b11 2
b110010 0
1!
#100000
0!
#101000
1/
b110011 0
b110011 -
1!
#102000
0!
#103000
0/
b110100 -
b100 2
b110100 0
1!
#104000
0!
#105000
1/
b110101 0
b110101 -
1!
#106000
0!
#107000
0/
b110110 -
0#
0&
b101 2
b110110 0
1!
#108000
0!
#109000
1/
b110111 0
b110111 -
1!
#110000
0!
#111000
0/
b111000 -
1#
1&
b110 2
b111000 0
1!
#112000
0!
#113000
1/
b111001 0
b111001 -
1!
#114000
0!
#115000
0/
b111010 -
b111 2
b111010 0
1!
#116000
0!
#117000
1/
b111011 0
b111011 -
1!
#118000
0!
#119000
b1001 )
b1001111 (
0%
0/
b111100 -
0#
0&
b10 4
b111100 0
1!
#120000
0!
#121000
1/
b111101 0
b111101 -
1!
#122000
0!
#123000
0/
b111110 -
b0 4
1#
1&
b111110 0
1!
#124000
0!
#125000
1/
1%
b111111 0
b0 2
b1 4
b111111 -
1!
#126000
0!
#127000
0/
b1000000 -
b11 4
0#
0&
b1000000 0
1!
#128000
0!
#129000
1/
b1000001 0
b1000001 -
1!
#130000
0!
#131000
0/
b1000010 -
b1 2
b1000010 0
1!
#132000
0!
#133000
1/
b1000011 0
b1000011 -
1!
#134000
0!
#135000
0/
b1000100 -
b10 2
b1000100 0
1!
#136000
0!
#137000
1/
b1000101 0
b1000101 -
1!
#138000
0!
#139000
0/
b1000110 -
1#
1&
b11 2
b1000110 0
1!
#140000
0!
#141000
1/
b1000111 0
b1000111 -
1!
#142000
0!
#143000
0/
b1001000 -
b100 2
b1001000 0
1!
#144000
0!
#145000
1/
b1001001 0
b1001001 -
1!
#146000
0!
#147000
0/
b1001010 -
0#
0&
b101 2
b1001010 0
1!
#148000
0!
#149000
1/
b1001011 0
b1001011 -
1!
#150000
0!
#151000
0/
b1001100 -
1#
1&
b110 2
b1001100 0
1!
#152000
0!
#153000
1/
b1001101 0
b1001101 -
1!
#154000
0!
#155000
0/
b1001110 -
b111 2
b1001110 0
1!
#156000
0!
#157000
1/
b1001111 0
b1001111 -
1!
#158000
0!
#159000
b1000 )
b1101111 +
b1101111 .
b1101111 1
b1000111 (
0%
0/
b1010000 -
0#
0&
b10 4
b1010000 0
1!
#160000
0!
#161000
1/
b1010001 0
b1010001 -
1!
#162000
0!
#163000
0/
b1010010 -
b0 4
1#
1&
b1010010 0
1!
#164000
0!
#165000
1/
1%
b1010011 0
b0 2
b1101111 3
b1 4
b1010011 -
1!
#166000
0!
#167000
0/
b1010100 -
b11 4
0#
0&
b1010100 0
1!
#168000
0!
#169000
1/
b1010101 0
b1010101 -
1!
#170000
0!
#171000
0/
b1010110 -
1#
1&
b1 2
b1010110 0
1!
#172000
0!
#173000
1/
b1010111 0
b1010111 -
1!
#174000
0!
#175000
0/
b1011000 -
b10 2
b1011000 0
1!
#176000
0!
#177000
1/
b1011001 0
b1011001 -
1!
#178000
0!
#179000
0/
b1011010 -
b11 2
b1011010 0
1!
#180000
0!
#181000
1/
b1011011 0
b1011011 -
1!
#182000
0!
#183000
0/
b1011100 -
b100 2
b1011100 0
1!
#184000
0!
#185000
1/
b1011101 0
b1011101 -
1!
#186000
0!
#187000
0/
b1011110 -
0#
0&
b101 2
b1011110 0
1!
#188000
0!
#189000
1/
b1011111 0
b1011111 -
1!
#190000
0!
#191000
0/
b1100000 -
1#
1&
b110 2
b1100000 0
1!
#192000
0!
#193000
1/
b1100001 0
b1100001 -
1!
#194000
0!
#195000
0/
b1100010 -
b111 2
b1100010 0
1!
#196000
0!
#197000
1/
b1100011 0
b1100011 -
1!
#198000
0!
#199000
b111 )
b100000 +
b100000 .
b100000 1
b111111 (
0%
0/
b1100100 -
0#
0&
b10 4
b1100100 0
1!
#200000
0!
#201000
1/
b1100101 0
b1100101 -
1!
#202000
0!
#203000
0/
b1100110 -
b0 4
1#
1&
b1100110 0
1!
#204000
0!
#205000
1/
1%
b1100111 0
b0 2
b100000 3
b1 4
b1100111 -
1!
#206000
0!
#207000
0/
b1101000 -
b11 4
0#
0&
b1101000 0
1!
#208000
0!
#209000
1/
b1101001 0
b1101001 -
1!
#210000
0!
#211000
0/
b1101010 -
b1 2
b1101010 0
1!
#212000
0!
#213000
1/
b1101011 0
b1101011 -
1!
#214000
0!
#215000
0/
b1101100 -
b10 2
b1101100 0
1!
#216000
0!
#217000
1/
b1101101 0
b1101101 -
1!
#218000
0!
#219000
0/
b1101110 -
b11 2
b1101110 0
1!
#220000
0!
#221000
1/
b1101111 0
b1101111 -
1!
#222000
0!
#223000
0/
b1110000 -
b100 2
b1110000 0
1!
#224000
0!
#225000
1/
b1110001 0
b1110001 -
1!
#226000
0!
#227000
0/
b1110010 -
b101 2
b1110010 0
1!
#228000
0!
#229000
1/
b1110011 0
b1110011 -
1!
#230000
0!
#231000
0/
b1110100 -
1#
1&
b110 2
b1110100 0
1!
#232000
0!
#233000
1/
b1110101 0
b1110101 -
1!
#234000
0!
#235000
0/
b1110110 -
0#
0&
b111 2
b1110110 0
1!
#236000
0!
#237000
1/
b1110111 0
b1110111 -
1!
#238000
0!
#239000
b110 )
b1010111 +
b1010111 .
b1010111 1
b110111 (
0%
0/
b1111000 -
b10 4
b1111000 0
1!
#240000
0!
#241000
1/
b1111001 0
b1111001 -
1!
#242000
0!
#243000
0/
b1111010 -
b0 4
1#
1&
b1111010 0
1!
#244000
0!
#245000
1/
1%
b1111011 0
b0 2
b1010111 3
b1 4
b1111011 -
1!
#246000
0!
#247000
0/
b1111100 -
b11 4
0#
0&
b1111100 0
1!
#248000
0!
#249000
1/
b1111101 0
b1111101 -
1!
#250000
0!
#251000
0/
b1111110 -
1#
1&
b1 2
b1111110 0
1!
#252000
0!
#253000
1/
b1111111 0
b1111111 -
1!
#254000
0!
#255000
0/
b10000000 -
b10 2
b10000000 0
1!
#256000
0!
#257000
1/
b10000001 0
b10000001 -
1!
#258000
0!
#259000
0/
b10000010 -
b11 2
b10000010 0
1!
#260000
0!
#261000
1/
b10000011 0
b10000011 -
1!
#262000
0!
#263000
0/
b10000100 -
0#
0&
b100 2
b10000100 0
1!
#264000
0!
#265000
1/
b10000101 0
b10000101 -
1!
#266000
0!
#267000
0/
b10000110 -
1#
1&
b101 2
b10000110 0
1!
#268000
0!
#269000
1/
b10000111 0
b10000111 -
1!
#270000
0!
#271000
0/
b10001000 -
0#
0&
b110 2
b10001000 0
1!
#272000
0!
#273000
1/
b10001001 0
b10001001 -
1!
#274000
0!
#275000
0/
b10001010 -
1#
1&
b111 2
b10001010 0
1!
#276000
0!
#277000
1/
b10001011 0
b10001011 -
1!
#278000
0!
#279000
b101 )
b1101111 +
b1101111 .
b1101111 1
b101111 (
0%
0/
b10001100 -
0#
0&
b10 4
b10001100 0
1!
#280000
0!
#281000
1/
b10001101 0
b10001101 -
1!
#282000
0!
#283000
0/
b10001110 -
b0 4
1#
1&
b10001110 0
1!
#284000
0!
#285000
1/
1%
b10001111 0
b0 2
b1101111 3
b1 4
b10001111 -
1!
#286000
0!
#287000
0/
b10010000 -
b11 4
0#
0&
b10010000 0
1!
#288000
0!
#289000
1/
b10010001 0
b10010001 -
1!
#290000
0!
#291000
0/
b10010010 -
1#
1&
b1 2
b10010010 0
1!
#292000
0!
#293000
1/
b10010011 0
b10010011 -
1!
#294000
0!
#295000
0/
b10010100 -
b10 2
b10010100 0
1!
#296000
0!
#297000
1/
b10010101 0
b10010101 -
1!
#298000
0!
#299000
0/
b10010110 -
b11 2
b10010110 0
1!
#300000
0!
#301000
1/
b10010111 0
b10010111 -
1!
#302000
0!
#303000
0/
b10011000 -
b100 2
b10011000 0
1!
#304000
0!
#305000
1/
b10011001 0
b10011001 -
1!
#306000
0!
#307000
0/
b10011010 -
0#
0&
b101 2
b10011010 0
1!
#308000
0!
#309000
1/
b10011011 0
b10011011 -
1!
#310000
0!
#311000
0/
b10011100 -
1#
1&
b110 2
b10011100 0
1!
#312000
0!
#313000
1/
b10011101 0
b10011101 -
1!
#314000
0!
#315000
0/
b10011110 -
b111 2
b10011110 0
1!
#316000
0!
#317000
1/
b10011111 0
b10011111 -
1!
#318000
0!
#319000
b100 )
b1110010 +
b1110010 .
b1110010 1
b100111 (
0%
0/
b10100000 -
0#
0&
b10 4
b10100000 0
1!
#320000
0!
#321000
1/
b10100001 0
b10100001 -
1!
#322000
0!
#323000
0/
b10100010 -
b0 4
1#
1&
b10100010 0
1!
#324000
0!
#325000
1/
1%
b10100011 0
b0 2
b1110010 3
b1 4
b10100011 -
1!
#326000
0!
#327000
0/
b10100100 -
b11 4
0#
0&
b10100100 0
1!
#328000
0!
#329000
1/
b10100101 0
b10100101 -
1!
#330000
0!
#331000
0/
b10100110 -
b1 2
b10100110 0
1!
#332000
0!
#333000
1/
b10100111 0
b10100111 -
1!
#334000
0!
#335000
0/
b10101000 -
1#
1&
b10 2
b10101000 0
1!
#336000
0!
#337000
1/
b10101001 0
b10101001 -
1!
#338000
0!
#339000
0/
b10101010 -
0#
0&
b11 2
b10101010 0
1!
#340000
0!
#341000
1/
b10101011 0
b10101011 -
1!
#342000
0!
#343000
0/
b10101100 -
b100 2
b10101100 0
1!
#344000
0!
#345000
1/
b10101101 0
b10101101 -
1!
#346000
0!
#347000
0/
b10101110 -
1#
1&
b101 2
b10101110 0
1!
#348000
0!
#349000
1/
b10101111 0
b10101111 -
1!
#350000
0!
#351000
0/
b10110000 -
b110 2
b10110000 0
1!
#352000
0!
#353000
1/
b10110001 0
b10110001 -
1!
#354000
0!
#355000
0/
b10110010 -
b111 2
b10110010 0
1!
#356000
0!
#357000
1/
b10110011 0
b10110011 -
1!
#358000
0!
#359000
b11 )
b1101100 +
b1101100 .
b1101100 1
b11111 (
0%
0/
b10110100 -
0#
0&
b10 4
b10110100 0
1!
#360000
0!
#361000
1/
b10110101 0
b10110101 -
1!
#362000
0!
#363000
0/
b10110110 -
b0 4
1#
1&
b10110110 0
1!
#364000
0!
#365000
1/
1%
b10110111 0
b0 2
b1101100 3
b1 4
b10110111 -
1!
#366000
0!
#367000
0/
b10111000 -
b11 4
0#
0&
b10111000 0
1!
#368000
0!
#369000
1/
b10111001 0
b10111001 -
1!
#370000
0!
#371000
0/
b10111010 -
b1 2
b10111010 0
1!
#372000
0!
#373000
1/
b10111011 0
b10111011 -
1!
#374000
0!
#375000
0/
b10111100 -
b10 2
b10111100 0
1!
#376000
0!
#377000
1/
b10111101 0
b10111101 -
1!
#378000
0!
#379000
0/
b10111110 -
1#
1&
b11 2
b10111110 0
1!
#380000
0!
#381000
1/
b10111111 0
b10111111 -
1!
#382000
0!
#383000
0/
b11000000 -
b100 2
b11000000 0
1!
#384000
0!
#385000
1/
b11000001 0
b11000001 -
1!
#386000
0!
#387000
0/
b11000010 -
0#
0&
b101 2
b11000010 0
1!
#388000
0!
#389000
1/
b11000011 0
b11000011 -
1!
#390000
0!
#391000
0/
b11000100 -
1#
1&
b110 2
b11000100 0
1!
#392000
0!
#393000
1/
b11000101 0
b11000101 -
1!
#394000
0!
#395000
0/
b11000110 -
b111 2
b11000110 0
1!
#396000
0!
#397000
1/
b11000111 0
b11000111 -
1!
#398000
0!
#399000
b10 )
b1100100 +
b1100100 .
b1100100 1
b10111 (
0%
0/
b11001000 -
0#
0&
b10 4
b11001000 0
1!
#400000
0!
#401000
1/
b11001001 0
b11001001 -
1!
#402000
0!
#403000
0/
b11001010 -
b0 4
1#
1&
b11001010 0
1!
#404000
0!
#405000
1/
1%
b11001011 0
b0 2
b1100100 3
b1 4
b11001011 -
1!
#406000
0!
#407000
0/
b11001100 -
b11 4
0#
0&
b11001100 0
1!
#408000
0!
#409000
1/
b11001101 0
b11001101 -
1!
#410000
0!
#411000
0/
b11001110 -
b1 2
b11001110 0
1!
#412000
0!
#413000
1/
b11001111 0
b11001111 -
1!
#414000
0!
#415000
0/
b11010000 -
b10 2
b11010000 0
1!
#416000
0!
#417000
1/
b11010001 0
b11010001 -
1!
#418000
0!
#419000
0/
b11010010 -
1#
1&
b11 2
b11010010 0
1!
#420000
0!
#421000
1/
b11010011 0
b11010011 -
1!
#422000
0!
#423000
0/
b11010100 -
0#
0&
b100 2
b11010100 0
1!
#424000
0!
#425000
1/
b11010101 0
b11010101 -
1!
#426000
0!
#427000
0/
b11010110 -
b101 2
b11010110 0
1!
#428000
0!
#429000
1/
b11010111 0
b11010111 -
1!
#430000
0!
#431000
0/
b11011000 -
1#
1&
b110 2
b11011000 0
1!
#432000
0!
#433000
1/
b11011001 0
b11011001 -
1!
#434000
0!
#435000
0/
b11011010 -
b111 2
b11011010 0
1!
#436000
0!
#437000
1/
b11011011 0
b11011011 -
1!
#438000
0!
#439000
b1 )
b100001 +
b100001 .
b100001 1
b1111 (
0%
0/
b11011100 -
0#
0&
b10 4
b11011100 0
1!
#440000
0!
#441000
1/
b11011101 0
b11011101 -
1!
#442000
0!
#443000
0/
b11011110 -
b0 4
1#
1&
b11011110 0
1!
#444000
0!
#445000
1/
1%
b11011111 0
b0 2
b100001 3
b1 4
b11011111 -
1!
#446000
0!
#447000
0/
b11100000 -
b11 4
0#
0&
b11100000 0
1!
#448000
0!
#449000
1/
b11100001 0
b11100001 -
1!
#450000
0!
#451000
0/
b11100010 -
1#
1&
b1 2
b11100010 0
1!
#452000
0!
#453000
1/
b11100011 0
b11100011 -
1!
#454000
0!
#455000
0/
b11100100 -
0#
0&
b10 2
b11100100 0
1!
#456000
0!
#457000
1/
b11100101 0
b11100101 -
1!
#458000
0!
#459000
0/
b11100110 -
b11 2
b11100110 0
1!
#460000
0!
#461000
1/
b11100111 0
b11100111 -
1!
#462000
0!
#463000
0/
b11101000 -
b100 2
b11101000 0
1!
#464000
0!
#465000
1/
b11101001 0
b11101001 -
1!
#466000
0!
#467000
0/
b11101010 -
b101 2
b11101010 0
1!
#468000
0!
#469000
1/
b11101011 0
b11101011 -
1!
#470000
0!
#471000
0/
b11101100 -
1#
1&
b110 2
b11101100 0
1!
#472000
0!
#473000
1/
b11101101 0
b11101101 -
1!
#474000
0!
#475000
0/
b11101110 -
0#
0&
b111 2
b11101110 0
1!
#476000
0!
#477000
1/
b11101111 0
b11101111 -
1!
#478000
0!
#479000
0*
b0 )
b1010 +
b1010 .
b1010 1
b111 (
0%
0/
b11110000 -
b10 4
b11110000 0
1!
#480000
0!
#481000
1/
b11110001 0
b11110001 -
1!
#482000
0!
#483000
0/
b11110010 -
b0 4
1#
1&
b11110010 0
1!
#484000
0!
#485000
1/
1%
b11110011 0
b0 2
b1010 3
b1 4
b11110011 -
1!
#486000
0!
#487000
0/
b11110100 -
b11 4
0#
0&
b11110100 0
1!
#488000
0!
#489000
1/
b11110101 0
b11110101 -
1!
#490000
0!
#491000
0/
b11110110 -
b1 2
b11110110 0
1!
#492000
0!
#493000
1/
b11110111 0
b11110111 -
1!
#494000
0!
#495000
0/
b11111000 -
1#
1&
b10 2
b11111000 0
1!
#496000
0!
#497000
1/
b11111001 0
b11111001 -
1!
#498000
0!
#499000
0/
b11111010 -
0#
0&
b11 2
b11111010 0
1!
#500000
0!
#501000
1/
b11111011 0
b11111011 -
1!
#502000
0!
#503000
0/
b11111100 -
1#
1&
b100 2
b11111100 0
1!
#504000
0!
#505000
1/
b11111101 0
b11111101 -
1!
#506000
0!
#507000
0/
b11111110 -
0#
0&
b101 2
b11111110 0
1!
#508000
0!
#509000
1/
b11111111 0
b11111111 -
1!
#510000
0!
#511000
0/
b100000000 -
b110 2
b100000000 0
1!
#512000
0!
#513000
1/
b100000001 0
b100000001 -
1!
#514000
0!
#515000
0/
b100000010 -
b111 2
b100000010 0
1!
#516000
0!
#517000
1/
b100000011 0
b100000011 -
1!
#518000
0!
#519000
b0 +
b0 .
b0 1
0,
0%
0/
b100000100 -
b10 4
b100000100 0
1!
#520000
0!
#521000
1/
b100000101 0
b100000101 -
1!
#522000
0!
#523000
0/
b100000110 -
b0 4
1#
1&
b100000110 0
1!
#524000
0!
#525000
1/
b100000111 0
b100000111 -
1!
#526000
0!
#527000
0/
b100001000 -
b100001000 0
1!
#528000
0!
#529000
1/
b100001001 0
b100001001 -
1!
#530000
0!
#531000
0/
b100001010 -
b100001010 0
1!
#532000
0!
#533000
1/
b100001011 0
b100001011 -
1!
#534000
0!
#535000
0/
b100001100 -
b100001100 0
1!
#536000
0!
#537000
1/
b100001101 0
b100001101 -
1!
#538000
0!
#539000
0/
b100001110 -
b100001110 0
1!
#540000
0!
#541000
1/
b100001111 0
b100001111 -
1!
#542000
0!
#543000
0/
b100010000 -
b100010000 0
1!
#544000
0!
#545000
1/
b100010001 0
b100010001 -
1!
#546000
0!
#547000
0/
b100010010 -
b100010010 0
1!
#548000
0!
#549000
1/
b100010011 0
b100010011 -
1!
#550000
0!
#551000
0/
b100010100 -
b100010100 0
1!
#552000
0!
#553000
1/
b100010101 0
b100010101 -
1!
#554000
0!
#555000
0/
b100010110 -
b100010110 0
1!
#556000
0!
#557000
1/
b100010111 0
b100010111 -
1!
#558000
0!
#559000
0/
b100011000 -
b100011000 0
1!
#560000
0!
#561000
1/
b100011001 0
b100011001 -
1!
#562000
0!
#563000
0/
b100011010 -
b100011010 0
1!
#564000
0!
#565000
1/
b100011011 0
b100011011 -
1!
#566000
0!
#567000
0/
b100011100 -
b100011100 0
1!
#568000
0!
#569000
1/
b100011101 0
b100011101 -
1!
#570000
0!
#571000
0/
b100011110 -
b100011110 0
1!
#572000
0!
#573000
1/
b100011111 0
b100011111 -
1!
#574000
0!
#575000
0/
b100100000 -
b100100000 0
1!
#576000
0!
#577000
1/
b100100001 0
b100100001 -
1!
#578000
0!
#579000
0/
b100100010 -
b100100010 0
1!
#580000
0!
#581000
1/
b100100011 0
b100100011 -
1!
#582000
0!
#583000
0/
b100100100 -
b100100100 0
1!
#584000
0!
#585000
1/
b100100101 0
b100100101 -
1!
#586000
0!
#587000
0/
b100100110 -
b100100110 0
1!
#588000
0!
#589000
1/
b100100111 0
b100100111 -
1!
#590000
0!
#591000
0/
b100101000 -
b100101000 0
1!
#592000
0!
#593000
1/
b100101001 0
b100101001 -
1!
#594000
0!
#595000
0/
b100101010 -
b100101010 0
1!
#596000
0!
#597000
1/
b100101011 0
b100101011 -
1!
#598000
0!
#599000
0/
b100101100 -
b100101100 0
1!
#600000
0!
#601000
1/
b100101101 0
b100101101 -
1!
#602000
0!
#603000
0/
b100101110 -
b100101110 0
1!
#604000
0!
#605000
1/
b100101111 0
b100101111 -
1!
#606000
0!
#607000
0/
b100110000 -
b100110000 0
1!
#608000
0!
#609000
1/
b100110001 0
b100110001 -
1!
#610000
0!
#611000
0/
b100110010 -
b100110010 0
1!
#612000
0!
#613000
1/
b100110011 0
b100110011 -
1!
#614000
0!
#615000
0/
b100110100 -
b100110100 0
1!
#616000
0!
#617000
1/
b100110101 0
b100110101 -
1!
#618000
0!
#619000
0/
b100110110 -
b100110110 0
1!
#620000
0!
#621000
1/
b100110111 0
b100110111 -
1!
#622000
0!
#623000
0/
b100111000 -
b100111000 0
1!
#624000
0!
#625000
1/
b100111001 0
b100111001 -
1!
#626000
0!
#627000
0/
b100111010 -
b100111010 0
1!
#628000
0!
#629000
1/
b100111011 0
b100111011 -
1!
#630000
0!
#631000
0/
b100111100 -
b100111100 0
1!
#632000
0!
#633000
1/
b100111101 0
b100111101 -
1!
#634000
0!
#635000
0/
b100111110 -
b100111110 0
1!
#636000
0!
#637000
1/
b100111111 0
b100111111 -
1!
#638000
0!
#639000
0/
b101000000 -
b101000000 0
1!
#640000
0!
#641000
1/
b101000001 0
b101000001 -
1!
#642000
0!
#643000
0/
b101000010 -
b101000010 0
1!
#644000
0!
#645000
1/
b101000011 0
b101000011 -
1!
#646000
0!
#647000
0/
b101000100 -
b101000100 0
1!
#648000
0!
#649000
1/
b101000101 0
b101000101 -
1!
#650000
0!
#651000
0/
b101000110 -
b101000110 0
1!
#652000
0!
#653000
1/
b101000111 0
b101000111 -
1!
#654000
0!
#655000
0/
b101001000 -
b101001000 0
1!
#656000
0!
#657000
1/
b101001001 0
b101001001 -
1!
#658000
0!
#659000
0/
b101001010 -
b101001010 0
1!
#660000
0!
#661000
1/
b101001011 0
b101001011 -
1!
#662000
0!
#663000
0/
b101001100 -
b101001100 0
1!
#664000
0!
#665000
1/
b101001101 0
b101001101 -
1!
#666000
0!
#667000
0/
b101001110 -
b101001110 0
1!
#668000
0!
#669000
1/
b101001111 0
b101001111 -
1!
#670000
0!
#671000
0/
b101010000 -
b101010000 0
1!
#672000
0!
#673000
1/
b101010001 0
b101010001 -
1!
#674000
0!
#675000
0/
b101010010 -
b101010010 0
1!
#676000
0!
#677000
1/
b101010011 0
b101010011 -
1!
#678000
0!
#679000
0/
b101010100 -
b101010100 0
1!
#680000
0!
#681000
1/
b101010101 0
b101010101 -
1!
#682000
0!
#683000
0/
b101010110 -
b101010110 0
1!
#684000
0!
#685000
1/
b101010111 0
b101010111 -
1!
#686000
0!
#687000
0/
b101011000 -
b101011000 0
1!
#688000
0!
#689000
1/
b101011001 0
b101011001 -
1!
#690000
0!
#691000
0/
b101011010 -
b101011010 0
1!
#692000
0!
#693000
1/
b101011011 0
b101011011 -
1!
#694000
0!
#695000
0/
b101011100 -
b101011100 0
1!
#696000
0!
#697000
1/
b101011101 0
b101011101 -
1!
#698000
0!
#699000
0/
b101011110 -
b101011110 0
1!
#700000
0!
#701000
1/
b101011111 0
b101011111 -
1!
#702000
0!
#703000
0/
b101100000 -
b101100000 0
1!
#704000
0!
#705000
1/
b101100001 0
b101100001 -
1!
#706000
0!
#707000
0/
b101100010 -
b101100010 0
1!
#708000
0!
#709000
1/
b101100011 0
b101100011 -
1!
#710000
0!
#711000
0/
b101100100 -
b101100100 0
1!
#712000
0!
#713000
1/
b101100101 0
b101100101 -
1!
#714000
0!
#715000
0/
b101100110 -
b101100110 0
1!
#716000
0!
#717000
1/
b101100111 0
b101100111 -
1!
#718000
0!
#719000
0/
b101101000 -
b101101000 0
1!
#720000
0!
#721000
1/
b101101001 0
b101101001 -
1!
#722000
0!
#723000
0/
b101101010 -
b101101010 0
1!
#724000
0!
#725000
1/
b101101011 0
b101101011 -
1!
#726000
0!
#727000
0/
b101101100 -
b101101100 0
1!
#728000
0!
#729000
1/
b101101101 0
b101101101 -
1!
#730000
0!
#731000
0/
b101101110 -
b101101110 0
1!
#732000
0!
#733000
1/
b101101111 0
b101101111 -
1!
#734000
0!
#735000
0/
b101110000 -
b101110000 0
1!
#736000
0!
#737000
1/
b101110001 0
b101110001 -
1!
#738000
0!
#739000
0/
b101110010 -
b101110010 0
1!
#740000
0!
#741000
1/
b101110011 0
b101110011 -
1!
#742000
0!
#743000
0/
b101110100 -
b101110100 0
1!
#744000
0!
#745000
1/
b101110101 0
b101110101 -
1!
#746000
0!
#747000
0/
b101110110 -
b101110110 0
1!
#748000
0!
#749000
1/
b101110111 0
b101110111 -
1!
#750000
0!
#751000
0/
b101111000 -
b101111000 0
1!
#752000
0!
#753000
1/
b101111001 0
b101111001 -
1!
#754000
0!
#755000
0/
b101111010 -
b101111010 0
1!
#756000
0!
#757000
1/
b101111011 0
b101111011 -
1!
#758000
0!
#759000
0/
b101111100 -
b101111100 0
1!
#760000
0!
#761000
1/
b101111101 0
b101111101 -
1!
#762000
0!
#763000
0/
b101111110 -
b101111110 0
1!
#764000
0!
#765000
1/
b101111111 0
b101111111 -
1!
#766000
0!
#767000
0/
b110000000 -
b110000000 0
1!
#768000
0!
#769000
1/
b110000001 0
b110000001 -
1!
#770000
0!
#771000
0/
b110000010 -
b110000010 0
1!
#772000
0!
#773000
1/
b110000011 0
b110000011 -
1!
#774000
0!
#775000
0/
b110000100 -
b110000100 0
1!
#776000
0!
#777000
1/
b110000101 0
b110000101 -
1!
#778000
0!
#779000
0/
b110000110 -
b110000110 0
1!
#780000
0!
#781000
1/
b110000111 0
b110000111 -
1!
#782000
0!
#783000
0/
b110001000 -
b110001000 0
1!
#784000
0!
#785000
1/
b110001001 0
b110001001 -
1!
#786000
0!
#787000
0/
b110001010 -
b110001010 0
1!
#788000
0!
#789000
1/
b110001011 0
b110001011 -
1!
#790000
0!
#791000
0/
b110001100 -
b110001100 0
1!
#792000
0!
#793000
1/
b110001101 0
b110001101 -
1!
#794000
0!
#795000
0/
b110001110 -
b110001110 0
1!
#796000
0!
#797000
1/
b110001111 0
b110001111 -
1!
#798000
0!
